\relax 
\citation{glimmer1}
\citation{glimmer2}
\@writefile{toc}{\contentsline {section}{\numberline {1}Introduction}{{\relax \fontsize  {9}{11}\selectfont  \abovedisplayskip 8\p@ plus2\p@ minus4\p@ \abovedisplayshortskip \z@ plus\p@ \belowdisplayshortskip 4\p@ plus2\p@ minus2\p@ \def \leftmargin \leftmargini \parsep 4.5\p@ plus2\p@ minus\p@ \topsep 9\p@ plus3\p@ minus5\p@ \itemsep 4.5\p@ plus2\p@ minus\p@ {\leftmargin \leftmargini \topsep 4\p@ plus2\p@ minus2\p@ \parsep 2\p@ plus\p@ minus\p@ \itemsep \parsep }\belowdisplayskip \abovedisplayskip 1}}}
\@writefile{toc}{\contentsline {section}{\numberline {2}About \textsc  {Glimmer}{}}{{\relax \fontsize  {9}{11}\selectfont  \abovedisplayskip 8\p@ plus2\p@ minus4\p@ \abovedisplayshortskip \z@ plus\p@ \belowdisplayshortskip 4\p@ plus2\p@ minus2\p@ \def \leftmargin \leftmargini \parsep 4.5\p@ plus2\p@ minus\p@ \topsep 9\p@ plus3\p@ minus5\p@ \itemsep 4.5\p@ plus2\p@ minus\p@ {\leftmargin \leftmargini \topsep 4\p@ plus2\p@ minus2\p@ \parsep 2\p@ plus\p@ minus\p@ \itemsep \parsep }\belowdisplayskip \abovedisplayskip 1}}}
\@writefile{toc}{\contentsline {section}{\numberline {3}What's Changed from Version\nobreakspace  {}2 to Version\nobreakspace  {}3}{{\relax \fontsize  {9}{11}\selectfont  \abovedisplayskip 8\p@ plus2\p@ minus4\p@ \abovedisplayshortskip \z@ plus\p@ \belowdisplayshortskip 4\p@ plus2\p@ minus2\p@ \def \leftmargin \leftmargini \parsep 4.5\p@ plus2\p@ minus\p@ \topsep 9\p@ plus3\p@ minus5\p@ \itemsep 4.5\p@ plus2\p@ minus\p@ {\leftmargin \leftmargini \topsep 4\p@ plus2\p@ minus2\p@ \parsep 2\p@ plus\p@ minus\p@ \itemsep \parsep }\belowdisplayskip \abovedisplayskip 1}}}
\@writefile{toc}{\contentsline {section}{\numberline {4}Installing and Running \textsc  {Glimmer3}}{{\relax \fontsize  {9}{11}\selectfont  \abovedisplayskip 8\p@ plus2\p@ minus4\p@ \abovedisplayshortskip \z@ plus\p@ \belowdisplayshortskip 4\p@ plus2\p@ minus2\p@ \def \leftmargin \leftmargini \parsep 4.5\p@ plus2\p@ minus\p@ \topsep 9\p@ plus3\p@ minus5\p@ \itemsep 4.5\p@ plus2\p@ minus\p@ {\leftmargin \leftmargini \topsep 4\p@ plus2\p@ minus2\p@ \parsep 2\p@ plus\p@ minus\p@ \itemsep \parsep }\belowdisplayskip \abovedisplayskip 2}}}
\@writefile{toc}{\contentsline {subsection}{\numberline {4.1}Installation}{{\relax \fontsize  {9}{11}\selectfont  \abovedisplayskip 8\p@ plus2\p@ minus4\p@ \abovedisplayshortskip \z@ plus\p@ \belowdisplayshortskip 4\p@ plus2\p@ minus2\p@ \def \leftmargin \leftmargini \parsep 4.5\p@ plus2\p@ minus\p@ \topsep 9\p@ plus3\p@ minus5\p@ \itemsep 4.5\p@ plus2\p@ minus\p@ {\leftmargin \leftmargini \topsep 4\p@ plus2\p@ minus2\p@ \parsep 2\p@ plus\p@ minus\p@ \itemsep \parsep }\belowdisplayskip \abovedisplayskip 3}}}
\@writefile{toc}{\contentsline {subsubsection}{\numberline {4.1.1}Troubleshooting}{{\relax \fontsize  {9}{11}\selectfont  \abovedisplayskip 8\p@ plus2\p@ minus4\p@ \abovedisplayshortskip \z@ plus\p@ \belowdisplayshortskip 4\p@ plus2\p@ minus2\p@ \def \leftmargin \leftmargini \parsep 4.5\p@ plus2\p@ minus\p@ \topsep 9\p@ plus3\p@ minus5\p@ \itemsep 4.5\p@ plus2\p@ minus\p@ {\leftmargin \leftmargini \topsep 4\p@ plus2\p@ minus2\p@ \parsep 2\p@ plus\p@ minus\p@ \itemsep \parsep }\belowdisplayskip \abovedisplayskip 3}}}
\@writefile{toc}{\contentsline {subsection}{\numberline {4.2}Running \textsc  {Glimmer}{}}{{\relax \fontsize  {9}{11}\selectfont  \abovedisplayskip 8\p@ plus2\p@ minus4\p@ \abovedisplayshortskip \z@ plus\p@ \belowdisplayshortskip 4\p@ plus2\p@ minus2\p@ \def \leftmargin \leftmargini \parsep 4.5\p@ plus2\p@ minus\p@ \topsep 9\p@ plus3\p@ minus5\p@ \itemsep 4.5\p@ plus2\p@ minus\p@ {\leftmargin \leftmargini \topsep 4\p@ plus2\p@ minus2\p@ \parsep 2\p@ plus\p@ minus\p@ \itemsep \parsep }\belowdisplayskip \abovedisplayskip 3}}}
\@writefile{toc}{\contentsline {subsubsection}{\numberline {4.2.1}Speed \& Memory Usage}{{\relax \fontsize  {9}{11}\selectfont  \abovedisplayskip 8\p@ plus2\p@ minus4\p@ \abovedisplayshortskip \z@ plus\p@ \belowdisplayshortskip 4\p@ plus2\p@ minus2\p@ \def \leftmargin \leftmargini \parsep 4.5\p@ plus2\p@ minus\p@ \topsep 9\p@ plus3\p@ minus5\p@ \itemsep 4.5\p@ plus2\p@ minus\p@ {\leftmargin \leftmargini \topsep 4\p@ plus2\p@ minus2\p@ \parsep 2\p@ plus\p@ minus\p@ \itemsep \parsep }\belowdisplayskip \abovedisplayskip 4}}}
\@writefile{toc}{\contentsline {subsection}{\numberline {4.3}Useful Scripts}{{\relax \fontsize  {9}{11}\selectfont  \abovedisplayskip 8\p@ plus2\p@ minus4\p@ \abovedisplayshortskip \z@ plus\p@ \belowdisplayshortskip 4\p@ plus2\p@ minus2\p@ \def \leftmargin \leftmargini \parsep 4.5\p@ plus2\p@ minus\p@ \topsep 9\p@ plus3\p@ minus5\p@ \itemsep 4.5\p@ plus2\p@ minus\p@ {\leftmargin \leftmargini \topsep 4\p@ plus2\p@ minus2\p@ \parsep 2\p@ plus\p@ minus\p@ \itemsep \parsep }\belowdisplayskip \abovedisplayskip 4}}}
\newlabel{script:sec}{{4.3}{{\relax \fontsize  {9}{11}\selectfont  \abovedisplayskip 8\p@ plus2\p@ minus4\p@ \abovedisplayshortskip \z@ plus\p@ \belowdisplayshortskip 4\p@ plus2\p@ minus2\p@ \def \leftmargin \leftmargini \parsep 4.5\p@ plus2\p@ minus\p@ \topsep 9\p@ plus3\p@ minus5\p@ \itemsep 4.5\p@ plus2\p@ minus\p@ {\leftmargin \leftmargini \topsep 4\p@ plus2\p@ minus2\p@ \parsep 2\p@ plus\p@ minus\p@ \itemsep \parsep }\belowdisplayskip \abovedisplayskip 4}}}
\@writefile{toc}{\contentsline {section}{\numberline {5}Sample Run Directory}{{\relax \fontsize  {9}{11}\selectfont  \abovedisplayskip 8\p@ plus2\p@ minus4\p@ \abovedisplayshortskip \z@ plus\p@ \belowdisplayshortskip 4\p@ plus2\p@ minus2\p@ \def \leftmargin \leftmargini \parsep 4.5\p@ plus2\p@ minus\p@ \topsep 9\p@ plus3\p@ minus5\p@ \itemsep 4.5\p@ plus2\p@ minus\p@ {\leftmargin \leftmargini \topsep 4\p@ plus2\p@ minus2\p@ \parsep 2\p@ plus\p@ minus\p@ \itemsep \parsep }\belowdisplayskip \abovedisplayskip 6}}}
\@writefile{toc}{\contentsline {section}{\numberline {6}Notes on the Programs}{{\relax \fontsize  {9}{11}\selectfont  \abovedisplayskip 8\p@ plus2\p@ minus4\p@ \abovedisplayshortskip \z@ plus\p@ \belowdisplayshortskip 4\p@ plus2\p@ minus2\p@ \def \leftmargin \leftmargini \parsep 4.5\p@ plus2\p@ minus\p@ \topsep 9\p@ plus3\p@ minus5\p@ \itemsep 4.5\p@ plus2\p@ minus\p@ {\leftmargin \leftmargini \topsep 4\p@ plus2\p@ minus2\p@ \parsep 2\p@ plus\p@ minus\p@ \itemsep \parsep }\belowdisplayskip \abovedisplayskip 6}}}
\@writefile{toc}{\contentsline {subsection}{\numberline {6.1}\texttt  {build-icm} Program}{{\relax \fontsize  {9}{11}\selectfont  \abovedisplayskip 8\p@ plus2\p@ minus4\p@ \abovedisplayshortskip \z@ plus\p@ \belowdisplayshortskip 4\p@ plus2\p@ minus2\p@ \def \leftmargin \leftmargini \parsep 4.5\p@ plus2\p@ minus\p@ \topsep 9\p@ plus3\p@ minus5\p@ \itemsep 4.5\p@ plus2\p@ minus\p@ {\leftmargin \leftmargini \topsep 4\p@ plus2\p@ minus2\p@ \parsep 2\p@ plus\p@ minus\p@ \itemsep \parsep }\belowdisplayskip \abovedisplayskip 6}}}
\@writefile{toc}{\contentsline {subsubsection}{\numberline {6.1.1}\texttt  {build-icm} Parameters \& Options}{{\relax \fontsize  {9}{11}\selectfont  \abovedisplayskip 8\p@ plus2\p@ minus4\p@ \abovedisplayshortskip \z@ plus\p@ \belowdisplayshortskip 4\p@ plus2\p@ minus2\p@ \def \leftmargin \leftmargini \parsep 4.5\p@ plus2\p@ minus\p@ \topsep 9\p@ plus3\p@ minus5\p@ \itemsep 4.5\p@ plus2\p@ minus\p@ {\leftmargin \leftmargini \topsep 4\p@ plus2\p@ minus2\p@ \parsep 2\p@ plus\p@ minus\p@ \itemsep \parsep }\belowdisplayskip \abovedisplayskip 6}}}
\@writefile{toc}{\contentsline {subsection}{\numberline {6.2}\texttt  {glimmer3} Program}{{\relax \fontsize  {9}{11}\selectfont  \abovedisplayskip 8\p@ plus2\p@ minus4\p@ \abovedisplayshortskip \z@ plus\p@ \belowdisplayshortskip 4\p@ plus2\p@ minus2\p@ \def \leftmargin \leftmargini \topsep 6\p@ plus2\p@ minus2\p@ \parsep 3\p@ plus2\p@ minus\p@ \itemsep \parsep {\leftmargin \leftmargini \topsep 4\p@ plus2\p@ minus2\p@ \parsep 2\p@ plus\p@ minus\p@ \itemsep \parsep }\belowdisplayskip \abovedisplayskip 8}}}
\@writefile{toc}{\contentsline {subsubsection}{\numberline {6.2.1}\texttt  {glimmer3} Parameters \& Options}{{\relax \fontsize  {9}{11}\selectfont  \abovedisplayskip 8\p@ plus2\p@ minus4\p@ \abovedisplayshortskip \z@ plus\p@ \belowdisplayshortskip 4\p@ plus2\p@ minus2\p@ \def \leftmargin \leftmargini \topsep 6\p@ plus2\p@ minus2\p@ \parsep 3\p@ plus2\p@ minus\p@ \itemsep \parsep {\leftmargin \leftmargini \topsep 4\p@ plus2\p@ minus2\p@ \parsep 2\p@ plus\p@ minus\p@ \itemsep \parsep }\belowdisplayskip \abovedisplayskip 8}}}
\@writefile{toc}{\contentsline {subsubsection}{\numberline {6.2.2}\texttt  {glimmer3} Output Formats}{{\relax \fontsize  {9}{11}\selectfont  \abovedisplayskip 8\p@ plus2\p@ minus4\p@ \abovedisplayshortskip \z@ plus\p@ \belowdisplayshortskip 4\p@ plus2\p@ minus2\p@ \def \leftmargin \leftmargini \topsep 6\p@ plus2\p@ minus2\p@ \parsep 3\p@ plus2\p@ minus\p@ \itemsep \parsep {\leftmargin \leftmargini \topsep 4\p@ plus2\p@ minus2\p@ \parsep 2\p@ plus\p@ minus\p@ \itemsep \parsep }\belowdisplayskip \abovedisplayskip 11}}}
\citation{med1}
\@writefile{toc}{\contentsline {subsection}{\numberline {6.3}\texttt  {long-orfs} Program}{{\relax \fontsize  {9}{11}\selectfont  \abovedisplayskip 8\p@ plus2\p@ minus4\p@ \abovedisplayshortskip \z@ plus\p@ \belowdisplayshortskip 4\p@ plus2\p@ minus2\p@ \def \leftmargin \leftmargini \parsep 4.5\p@ plus2\p@ minus\p@ \topsep 9\p@ plus3\p@ minus5\p@ \itemsep 4.5\p@ plus2\p@ minus\p@ {\leftmargin \leftmargini \topsep 4\p@ plus2\p@ minus2\p@ \parsep 2\p@ plus\p@ minus\p@ \itemsep \parsep }\belowdisplayskip \abovedisplayskip 14}}}
\@writefile{toc}{\contentsline {subsubsection}{\numberline {6.3.1}\texttt  {long-orfs} Parameters \& Options}{{\relax \fontsize  {9}{11}\selectfont  \abovedisplayskip 8\p@ plus2\p@ minus4\p@ \abovedisplayshortskip \z@ plus\p@ \belowdisplayshortskip 4\p@ plus2\p@ minus2\p@ \def \leftmargin \leftmargini \parsep 4.5\p@ plus2\p@ minus\p@ \topsep 9\p@ plus3\p@ minus5\p@ \itemsep 4.5\p@ plus2\p@ minus\p@ {\leftmargin \leftmargini \topsep 4\p@ plus2\p@ minus2\p@ \parsep 2\p@ plus\p@ minus\p@ \itemsep \parsep }\belowdisplayskip \abovedisplayskip 14}}}
\@writefile{toc}{\contentsline {subsection}{\numberline {6.4}Other Programs}{{\relax \fontsize  {9}{11}\selectfont  \abovedisplayskip 8\p@ plus2\p@ minus4\p@ \abovedisplayshortskip \z@ plus\p@ \belowdisplayshortskip 4\p@ plus2\p@ minus2\p@ \def \leftmargin \leftmargini \parsep 4.5\p@ plus2\p@ minus\p@ \topsep 9\p@ plus3\p@ minus5\p@ \itemsep 4.5\p@ plus2\p@ minus\p@ {\leftmargin \leftmargini \topsep 4\p@ plus2\p@ minus2\p@ \parsep 2\p@ plus\p@ minus\p@ \itemsep \parsep }\belowdisplayskip \abovedisplayskip 16}}}
\@writefile{toc}{\contentsline {subsubsection}{\numberline {6.4.1}\texttt  {anomaly} Program}{{\relax \fontsize  {9}{11}\selectfont  \abovedisplayskip 8\p@ plus2\p@ minus4\p@ \abovedisplayshortskip \z@ plus\p@ \belowdisplayshortskip 4\p@ plus2\p@ minus2\p@ \def \leftmargin \leftmargini \parsep 4.5\p@ plus2\p@ minus\p@ \topsep 9\p@ plus3\p@ minus5\p@ \itemsep 4.5\p@ plus2\p@ minus\p@ {\leftmargin \leftmargini \topsep 4\p@ plus2\p@ minus2\p@ \parsep 2\p@ plus\p@ minus\p@ \itemsep \parsep }\belowdisplayskip \abovedisplayskip 16}}}
\@writefile{toc}{\contentsline {subsubsection}{\numberline {6.4.2}\texttt  {build-fixed} Program}{{\relax \fontsize  {9}{11}\selectfont  \abovedisplayskip 8\p@ plus2\p@ minus4\p@ \abovedisplayshortskip \z@ plus\p@ \belowdisplayshortskip 4\p@ plus2\p@ minus2\p@ \def \leftmargin \leftmargini \parsep 4.5\p@ plus2\p@ minus\p@ \topsep 9\p@ plus3\p@ minus5\p@ \itemsep 4.5\p@ plus2\p@ minus\p@ {\leftmargin \leftmargini \topsep 4\p@ plus2\p@ minus2\p@ \parsep 2\p@ plus\p@ minus\p@ \itemsep \parsep }\belowdisplayskip \abovedisplayskip 16}}}
\@writefile{toc}{\contentsline {subsubsection}{\numberline {6.4.3}\texttt  {entropy-profile} Program}{{\relax \fontsize  {9}{11}\selectfont  \abovedisplayskip 8\p@ plus2\p@ minus4\p@ \abovedisplayshortskip \z@ plus\p@ \belowdisplayshortskip 4\p@ plus2\p@ minus2\p@ \def \leftmargin \leftmargini \parsep 4.5\p@ plus2\p@ minus\p@ \topsep 9\p@ plus3\p@ minus5\p@ \itemsep 4.5\p@ plus2\p@ minus\p@ {\leftmargin \leftmargini \topsep 4\p@ plus2\p@ minus2\p@ \parsep 2\p@ plus\p@ minus\p@ \itemsep \parsep }\belowdisplayskip \abovedisplayskip 16}}}
\@writefile{toc}{\contentsline {subsubsection}{\numberline {6.4.4}\texttt  {entropy-score} Program}{{\relax \fontsize  {9}{11}\selectfont  \abovedisplayskip 8\p@ plus2\p@ minus4\p@ \abovedisplayshortskip \z@ plus\p@ \belowdisplayshortskip 4\p@ plus2\p@ minus2\p@ \def \leftmargin \leftmargini \parsep 4.5\p@ plus2\p@ minus\p@ \topsep 9\p@ plus3\p@ minus5\p@ \itemsep 4.5\p@ plus2\p@ minus\p@ {\leftmargin \leftmargini \topsep 4\p@ plus2\p@ minus2\p@ \parsep 2\p@ plus\p@ minus\p@ \itemsep \parsep }\belowdisplayskip \abovedisplayskip 16}}}
\@writefile{toc}{\contentsline {subsubsection}{\numberline {6.4.5}\texttt  {extract} Program}{{\relax \fontsize  {9}{11}\selectfont  \abovedisplayskip 8\p@ plus2\p@ minus4\p@ \abovedisplayshortskip \z@ plus\p@ \belowdisplayshortskip 4\p@ plus2\p@ minus2\p@ \def \leftmargin \leftmargini \parsep 4.5\p@ plus2\p@ minus\p@ \topsep 9\p@ plus3\p@ minus5\p@ \itemsep 4.5\p@ plus2\p@ minus\p@ {\leftmargin \leftmargini \topsep 4\p@ plus2\p@ minus2\p@ \parsep 2\p@ plus\p@ minus\p@ \itemsep \parsep }\belowdisplayskip \abovedisplayskip 16}}}
\@writefile{toc}{\contentsline {subsubsection}{\numberline {6.4.6}\texttt  {multi-extract} Program}{{\relax \fontsize  {9}{11}\selectfont  \abovedisplayskip 8\p@ plus2\p@ minus4\p@ \abovedisplayshortskip \z@ plus\p@ \belowdisplayshortskip 4\p@ plus2\p@ minus2\p@ \def \leftmargin \leftmargini \parsep 4.5\p@ plus2\p@ minus\p@ \topsep 9\p@ plus3\p@ minus5\p@ \itemsep 4.5\p@ plus2\p@ minus\p@ {\leftmargin \leftmargini \topsep 4\p@ plus2\p@ minus2\p@ \parsep 2\p@ plus\p@ minus\p@ \itemsep \parsep }\belowdisplayskip \abovedisplayskip 17}}}
\@writefile{toc}{\contentsline {subsubsection}{\numberline {6.4.7}\texttt  {score-fixed} Program}{{\relax \fontsize  {9}{11}\selectfont  \abovedisplayskip 8\p@ plus2\p@ minus4\p@ \abovedisplayshortskip \z@ plus\p@ \belowdisplayshortskip 4\p@ plus2\p@ minus2\p@ \def \leftmargin \leftmargini \parsep 4.5\p@ plus2\p@ minus\p@ \topsep 9\p@ plus3\p@ minus5\p@ \itemsep 4.5\p@ plus2\p@ minus\p@ {\leftmargin \leftmargini \topsep 4\p@ plus2\p@ minus2\p@ \parsep 2\p@ plus\p@ minus\p@ \itemsep \parsep }\belowdisplayskip \abovedisplayskip 17}}}
\@writefile{toc}{\contentsline {subsubsection}{\numberline {6.4.8}\texttt  {start-codon-distrib} Program}{{\relax \fontsize  {9}{11}\selectfont  \abovedisplayskip 8\p@ plus2\p@ minus4\p@ \abovedisplayshortskip \z@ plus\p@ \belowdisplayshortskip 4\p@ plus2\p@ minus2\p@ \def \leftmargin \leftmargini \parsep 4.5\p@ plus2\p@ minus\p@ \topsep 9\p@ plus3\p@ minus5\p@ \itemsep 4.5\p@ plus2\p@ minus\p@ {\leftmargin \leftmargini \topsep 4\p@ plus2\p@ minus2\p@ \parsep 2\p@ plus\p@ minus\p@ \itemsep \parsep }\belowdisplayskip \abovedisplayskip 17}}}
\@writefile{toc}{\contentsline {subsubsection}{\numberline {6.4.9}\texttt  {uncovered} Program}{{\relax \fontsize  {9}{11}\selectfont  \abovedisplayskip 8\p@ plus2\p@ minus4\p@ \abovedisplayshortskip \z@ plus\p@ \belowdisplayshortskip 4\p@ plus2\p@ minus2\p@ \def \leftmargin \leftmargini \parsep 4.5\p@ plus2\p@ minus\p@ \topsep 9\p@ plus3\p@ minus5\p@ \itemsep 4.5\p@ plus2\p@ minus\p@ {\leftmargin \leftmargini \topsep 4\p@ plus2\p@ minus2\p@ \parsep 2\p@ plus\p@ minus\p@ \itemsep \parsep }\belowdisplayskip \abovedisplayskip 17}}}
\@writefile{toc}{\contentsline {subsubsection}{\numberline {6.4.10}\texttt  {window-acgt} Program}{{\relax \fontsize  {9}{11}\selectfont  \abovedisplayskip 8\p@ plus2\p@ minus4\p@ \abovedisplayshortskip \z@ plus\p@ \belowdisplayshortskip 4\p@ plus2\p@ minus2\p@ \def \leftmargin \leftmargini \parsep 4.5\p@ plus2\p@ minus\p@ \topsep 9\p@ plus3\p@ minus5\p@ \itemsep 4.5\p@ plus2\p@ minus\p@ {\leftmargin \leftmargini \topsep 4\p@ plus2\p@ minus2\p@ \parsep 2\p@ plus\p@ minus\p@ \itemsep \parsep }\belowdisplayskip \abovedisplayskip 17}}}
\@writefile{toc}{\contentsline {section}{\numberline {7}Versions}{{\relax \fontsize  {9}{11}\selectfont  \abovedisplayskip 8\p@ plus2\p@ minus4\p@ \abovedisplayshortskip \z@ plus\p@ \belowdisplayshortskip 4\p@ plus2\p@ minus2\p@ \def \leftmargin \leftmargini \parsep 4.5\p@ plus2\p@ minus\p@ \topsep 9\p@ plus3\p@ minus5\p@ \itemsep 4.5\p@ plus2\p@ minus\p@ {\leftmargin \leftmargini \topsep 4\p@ plus2\p@ minus2\p@ \parsep 2\p@ plus\p@ minus\p@ \itemsep \parsep }\belowdisplayskip \abovedisplayskip 17}}}
\@writefile{toc}{\contentsline {subsection}{\numberline {7.1}Version\nobreakspace  {}3.01}{{\relax \fontsize  {9}{11}\selectfont  \abovedisplayskip 8\p@ plus2\p@ minus4\p@ \abovedisplayshortskip \z@ plus\p@ \belowdisplayshortskip 4\p@ plus2\p@ minus2\p@ \def \leftmargin \leftmargini \parsep 4.5\p@ plus2\p@ minus\p@ \topsep 9\p@ plus3\p@ minus5\p@ \itemsep 4.5\p@ plus2\p@ minus\p@ {\leftmargin \leftmargini \topsep 4\p@ plus2\p@ minus2\p@ \parsep 2\p@ plus\p@ minus\p@ \itemsep \parsep }\belowdisplayskip \abovedisplayskip 17}}}
\bibstyle{alpha}
\bibdata{notes}
\bibcite{glimmer2}{DHK{$^{+}$}99}
\bibcite{med1}{OZWS04}
\bibcite{glimmer1}{SDKW98}
\@writefile{toc}{\contentsline {subsection}{\numberline {7.2}Version\nobreakspace  {}3.02}{{\relax \fontsize  {9}{11}\selectfont  \abovedisplayskip 8\p@ plus2\p@ minus4\p@ \abovedisplayshortskip \z@ plus\p@ \belowdisplayshortskip 4\p@ plus2\p@ minus2\p@ \def \leftmargin \leftmargini \parsep 4.5\p@ plus2\p@ minus\p@ \topsep 9\p@ plus3\p@ minus5\p@ \itemsep 4.5\p@ plus2\p@ minus\p@ {\leftmargin \leftmargini \topsep 4\p@ plus2\p@ minus2\p@ \parsep 2\p@ plus\p@ minus\p@ \itemsep \parsep }\belowdisplayskip \abovedisplayskip 18}}}
